{"result":{"message":"操作成功！","status":"success"},"data":{"pageInfo":{"records":[


普通模式

],"currentPage":43,"totalPages":43,"totalRecords":1485,"pageSize":35,"pageLinks":[35,36,37,38,39,40,41,42,43],"start":0,"size":0,"hasNextPage":0}}}


]\,\"cur.*hasNextPage.*\}\}\}$

"rightsBinStr":"000000000000000000000000000000000",
"imid":null,"corpsInfo":null,"subChannelId":0,"channelName":null,
"passport":null,"email":null,
"roleCA1":false,

,"majiaUrl":"/images/\w*\/*\w*.gif"



Python
{\"result.*records\":\[
\],\"cur.*hasNextPage.*\}\}\}$